{
    "tracks":{
       "href":"https://api.spotify.com/v1/search?query=remaster%252520track%253ADoxy%252520artist%253AMiles%252520Davis&type=track&offset=0&limit=1",
       "items":[
          {
             "album":{
                "album_type":"album",
                "artists":[
                   {
                      "external_urls":{
                         "spotify":"https://open.spotify.com/artist/0kbYTNQb4Pb1rPbbaF0pT4"
                      },
                      "href":"https://api.spotify.com/v1/artists/0kbYTNQb4Pb1rPbbaF0pT4",
                      "id":"0kbYTNQb4Pb1rPbbaF0pT4",
                      "name":"Miles Davis",
                      "type":"artist",
                      "uri":"spotify:artist:0kbYTNQb4Pb1rPbbaF0pT4"
                   }
                ],
                "available_markets":[
                   "AR",
                   "AU",
                   "AT",
                   "BE",
                   "BO",
                   "BR",
                   "BG",
                   "CA",
                   "CL",
                   "CO",
                   "CR",
                   "CY",
                   "CZ",
                   "DK",
                   "DO",
                   "DE",
                   "EC",
                   "EE",
                   "SV",
                   "FI",
                   "FR",
                   "GR",
                   "GT",
                   "HN",
                   "HK",
                   "HU",
                   "IS",
                   "IE",
                   "IT",
                   "LV",
                   "LT",
                   "LU",
                   "MY",
                   "MT",
                   "MX",
                   "NL",
                   "NZ",
                   "NI",
                   "NO",
                   "PA",
                   "PY",
                   "PE",
                   "PH",
                   "PL",
                   "PT",
                   "SG",
                   "SK",
                   "ES",
                   "SE",
                   "CH",
                   "TW",
                   "TR",
                   "UY",
                   "US",
                   "GB",
                   "AD",
                   "LI",
                   "MC",
                   "ID",
                   "JP",
                   "TH",
                   "VN",
                   "RO",
                   "IL",
                   "ZA",
                   "SA",
                   "AE",
                   "BH",
                   "QA",
                   "OM",
                   "KW",
                   "EG",
                   "MA",
                   "DZ",
                   "TN",
                   "LB",
                   "JO",
                   "PS",
                   "IN",
                   "BY",
                   "KZ",
                   "MD",
                   "UA",
                   "AL",
                   "BA",
                   "HR",
                   "ME",
                   "MK",
                   "RS",
                   "SI",
                   "KR",
                   "BD",
                   "PK",
                   "LK",
                   "GH",
                   "KE",
                   "NG",
                   "TZ",
                   "UG",
                   "AG",
                   "AM",
                   "BS",
                   "BB",
                   "BZ",
                   "BT",
                   "BW",
                   "BF",
                   "CV",
                   "CW",
                   "DM",
                   "FJ",
                   "GM",
                   "GE",
                   "GD",
                   "GW",
                   "GY",
                   "HT",
                   "JM",
                   "KI",
                   "LS",
                   "LR",
                   "MW",
                   "MV",
                   "ML",
                   "MH",
                   "FM",
                   "NA",
                   "NR",
                   "NE",
                   "PW",
                   "PG",
                   "PR",
                   "WS",
                   "SM",
                   "ST",
                   "SN",
                   "SC",
                   "SL",
                   "SB",
                   "KN",
                   "LC",
                   "VC",
                   "SR",
                   "TL",
                   "TO",
                   "TT",
                   "TV",
                   "VU",
                   "AZ",
                   "BN",
                   "BI",
                   "KH",
                   "CM",
                   "TD",
                   "KM",
                   "GQ",
                   "SZ",
                   "GA",
                   "GN",
                   "KG",
                   "LA",
                   "MO",
                   "MR",
                   "MN",
                   "NP",
                   "RW",
                   "TG",
                   "UZ",
                   "ZW",
                   "BJ",
                   "MG",
                   "MU",
                   "MZ",
                   "AO",
                   "CI",
                   "DJ",
                   "ZM",
                   "CD",
                   "CG",
                   "IQ",
                   "LY",
                   "TJ",
                   "VE",
                   "ET",
                   "XK"
                ],
                "external_urls":{
                   "spotify":"https://open.spotify.com/album/56I4vUYWQ4aXLiyfo8XuZv"
                },
                "href":"https://api.spotify.com/v1/albums/56I4vUYWQ4aXLiyfo8XuZv",
                "id":"56I4vUYWQ4aXLiyfo8XuZv",
                "images":[
                   {
                      "height":640,
                      "url":"https://i.scdn.co/image/ab67616d0000b2735e10a5aca3763224e2050016",
                      "width":640
                   },
                   {
                      "height":300,
                      "url":"https://i.scdn.co/image/ab67616d00001e025e10a5aca3763224e2050016",
                      "width":300
                   },
                   {
                      "height":64,
                      "url":"https://i.scdn.co/image/ab67616d000048515e10a5aca3763224e2050016",
                      "width":64
                   }
                ],
                "name":"Milestones",
                "release_date":"1958-04",
                "release_date_precision":"month",
                "total_tracks":9,
                "type":"album",
                "uri":"spotify:album:56I4vUYWQ4aXLiyfo8XuZv"
             },
             "artists":[
                {
                   "external_urls":{
                      "spotify":"https://open.spotify.com/artist/0kbYTNQb4Pb1rPbbaF0pT4"
                   },
                   "href":"https://api.spotify.com/v1/artists/0kbYTNQb4Pb1rPbbaF0pT4",
                   "id":"0kbYTNQb4Pb1rPbbaF0pT4",
                   "name":"Miles Davis",
                   "type":"artist",
                   "uri":"spotify:artist:0kbYTNQb4Pb1rPbbaF0pT4"
                },
                {
                   "external_urls":{
                      "spotify":"https://open.spotify.com/artist/2hGh5VOeeqimQFxqXvfCUf"
                   },
                   "href":"https://api.spotify.com/v1/artists/2hGh5VOeeqimQFxqXvfCUf",
                   "id":"2hGh5VOeeqimQFxqXvfCUf",
                   "name":"John Coltrane",
                   "type":"artist",
                   "uri":"spotify:artist:2hGh5VOeeqimQFxqXvfCUf"
                },
                {
                   "external_urls":{
                      "spotify":"https://open.spotify.com/artist/5v74mT11KGJqadf9sLw4dA"
                   },
                   "href":"https://api.spotify.com/v1/artists/5v74mT11KGJqadf9sLw4dA",
                   "id":"5v74mT11KGJqadf9sLw4dA",
                   "name":"Cannonball Adderley",
                   "type":"artist",
                   "uri":"spotify:artist:5v74mT11KGJqadf9sLw4dA"
                },
                {
                   "external_urls":{
                      "spotify":"https://open.spotify.com/artist/35iymrFS4VnsKn35ebHKX9"
                   },
                   "href":"https://api.spotify.com/v1/artists/35iymrFS4VnsKn35ebHKX9",
                   "id":"35iymrFS4VnsKn35ebHKX9",
                   "name":"Red Garland",
                   "type":"artist",
                   "uri":"spotify:artist:35iymrFS4VnsKn35ebHKX9"
                },
                {
                   "external_urls":{
                      "spotify":"https://open.spotify.com/artist/0M1UOBJZ9tcKJbrbnVlHZG"
                   },
                   "href":"https://api.spotify.com/v1/artists/0M1UOBJZ9tcKJbrbnVlHZG",
                   "id":"0M1UOBJZ9tcKJbrbnVlHZG",
                   "name":"Paul Chambers",
                   "type":"artist",
                   "uri":"spotify:artist:0M1UOBJZ9tcKJbrbnVlHZG"
                },
                {
                   "external_urls":{
                      "spotify":"https://open.spotify.com/artist/4WhH68K75YKSAwHAqWFpi1"
                   },
                   "href":"https://api.spotify.com/v1/artists/4WhH68K75YKSAwHAqWFpi1",
                   "id":"4WhH68K75YKSAwHAqWFpi1",
                   "name":"Philly Joe Jones",
                   "type":"artist",
                   "uri":"spotify:artist:4WhH68K75YKSAwHAqWFpi1"
                }
             ],
             "available_markets":[
                "AR",
                "AU",
                "AT",
                "BE",
                "BO",
                "BR",
                "BG",
                "CA",
                "CL",
                "CO",
                "CR",
                "CY",
                "CZ",
                "DK",
                "DO",
                "DE",
                "EC",
                "EE",
                "SV",
                "FI",
                "FR",
                "GR",
                "GT",
                "HN",
                "HK",
                "HU",
                "IS",
                "IE",
                "IT",
                "LV",
                "LT",
                "LU",
                "MY",
                "MT",
                "MX",
                "NL",
                "NZ",
                "NI",
                "NO",
                "PA",
                "PY",
                "PE",
                "PH",
                "PL",
                "PT",
                "SG",
                "SK",
                "ES",
                "SE",
                "CH",
                "TW",
                "TR",
                "UY",
                "US",
                "GB",
                "AD",
                "LI",
                "MC",
                "ID",
                "JP",
                "TH",
                "VN",
                "RO",
                "IL",
                "ZA",
                "SA",
                "AE",
                "BH",
                "QA",
                "OM",
                "KW",
                "EG",
                "MA",
                "DZ",
                "TN",
                "LB",
                "JO",
                "PS",
                "IN",
                "BY",
                "KZ",
                "MD",
                "UA",
                "AL",
                "BA",
                "HR",
                "ME",
                "MK",
                "RS",
                "SI",
                "KR",
                "BD",
                "PK",
                "LK",
                "GH",
                "KE",
                "NG",
                "TZ",
                "UG",
                "AG",
                "AM",
                "BS",
                "BB",
                "BZ",
                "BT",
                "BW",
                "BF",
                "CV",
                "CW",
                "DM",
                "FJ",
                "GM",
                "GE",
                "GD",
                "GW",
                "GY",
                "HT",
                "JM",
                "KI",
                "LS",
                "LR",
                "MW",
                "MV",
                "ML",
                "MH",
                "FM",
                "NA",
                "NR",
                "NE",
                "PW",
                "PG",
                "PR",
                "WS",
                "SM",
                "ST",
                "SN",
                "SC",
                "SL",
                "SB",
                "KN",
                "LC",
                "VC",
                "SR",
                "TL",
                "TO",
                "TT",
                "TV",
                "VU",
                "AZ",
                "BN",
                "BI",
                "KH",
                "CM",
                "TD",
                "KM",
                "GQ",
                "SZ",
                "GA",
                "GN",
                "KG",
                "LA",
                "MO",
                "MR",
                "MN",
                "NP",
                "RW",
                "TG",
                "UZ",
                "ZW",
                "BJ",
                "MG",
                "MU",
                "MZ",
                "AO",
                "CI",
                "DJ",
                "ZM",
                "CD",
                "CG",
                "IQ",
                "LY",
                "TJ",
                "VE",
                "ET",
                "XK"
             ],
             "disc_number":1,
             "duration_ms":342066,
             "explicit":false,
             "external_ids":{
                "isrc":"USSM15800672"
             },
             "external_urls":{
                "spotify":"https://open.spotify.com/track/1xicvSO4CJ2ymqYgpk7DFh"
             },
             "href":"https://api.spotify.com/v1/tracks/1xicvSO4CJ2ymqYgpk7DFh",
             "id":"1xicvSO4CJ2ymqYgpk7DFh",
             "is_local":false,
             "name":"Milestones (feat. John Coltrane, Cannonball Adderley, Red Garland, Paul Chambers & Philly Joe Jones)",
             "popularity":52,
             "preview_url":"https://p.scdn.co/mp3-preview/4fe47c49e5ca36f32c0248bafed30baee5c439cc?cid=7c9d1f2725d74e238d7833bd708a60d3",
             "track_number":4,
             "type":"track",
             "uri":"spotify:track:1xicvSO4CJ2ymqYgpk7DFh"
          }
       ],
       "limit":1,
       "next":"https://api.spotify.com/v1/search?query=remaster%252520track%253ADoxy%252520artist%253AMiles%252520Davis&type=track&offset=1&limit=1",
       "offset":0,
       "previous":"None",
       "total":800
    }
 }